```shell
$ trivy i jboss/keycloak:13.0.1
2021-05-26T19:23:14.416+0200	INFO	Detected OS: redhat
2021-05-26T19:23:14.416+0200	INFO	Detecting RHEL/CentOS vulnerabilities...
2021-05-26T19:23:14.432+0200	INFO	Number of PL dependency files: 621

jboss/keycloak:13.0.1 (redhat 8.4)
==================================
Total: 118 (UNKNOWN: 0, LOW: 49, MEDIUM: 67, HIGH: 2, CRITICAL: 0)

+------------------------+------------------+----------+---------------------+---------------+-----------------------------------------+
|        LIBRARY         | VULNERABILITY ID | SEVERITY |  INSTALLED VERSION  | FIXED VERSION |                  TITLE                  |
+------------------------+------------------+----------+---------------------+---------------+-----------------------------------------+
| avahi-libs             | CVE-2021-3468    | MEDIUM   | 0.7-20.el8          |               | avahi: Local DoS by event-busy-loop     |
|                        |                  |          |                     |               | from writing long lines to              |
|                        |                  |          |                     |               | /run/avahi-daemon/socket                |
|                        |                  |          |                     |               | -->avd.aquasec.com/nvd/cve-2021-3468    |
+                        +------------------+----------+                     +---------------+-----------------------------------------+
|                        | CVE-2017-6519    | LOW      |                     |               | avahi: Multicast DNS                    |
|                        |                  |          |                     |               | responds to unicast queries             |
|                        |                  |          |                     |               | outside of local network                |
|                        |                  |          |                     |               | -->avd.aquasec.com/nvd/cve-2017-6519    |
+------------------------+------------------+          +---------------------+---------------+-----------------------------------------+
| bzip2-libs             | CVE-2019-12900   |          | 1.0.6-26.el8        |               | bzip2: out-of-bounds write              |
|                        |                  |          |                     |               | in function BZ2_decompress              |
|                        |                  |          |                     |               | -->avd.aquasec.com/nvd/cve-2019-12900   |
+------------------------+------------------+----------+---------------------+---------------+-----------------------------------------+
| coreutils-single       | CVE-2017-18018   | MEDIUM   | 8.30-8.el8          |               | coreutils: race condition               |
|                        |                  |          |                     |               | vulnerability in chown and chgrp        |
|                        |                  |          |                     |               | -->avd.aquasec.com/nvd/cve-2017-18018   |
+------------------------+------------------+          +---------------------+---------------+-----------------------------------------+
| cups-libs              | CVE-2020-10001   |          | 1:2.2.6-38.el8      |               | cups: access to                         |
|                        |                  |          |                     |               | uninitialized buffer in ipp.c           |
|                        |                  |          |                     |               | -->avd.aquasec.com/nvd/cve-2020-10001   |
+                        +------------------+----------+                     +---------------+-----------------------------------------+
|                        | CVE-2021-25317   | LOW      |                     |               | cups: insecure permissions              |
|                        |                  |          |                     |               | of /var/log/cups allows                 |
|                        |                  |          |                     |               | for symlink attacks                     |
|                        |                  |          |                     |               | -->avd.aquasec.com/nvd/cve-2021-25317   |
+------------------------+------------------+----------+---------------------+---------------+-----------------------------------------+
| curl                   | CVE-2021-22876   | MEDIUM   | 7.61.1-18.el8       |               | curl: Leak of authentication            |
|                        |                  |          |                     |               | credentials in URL                      |
|                        |                  |          |                     |               | via automatic Referer                   |
|                        |                  |          |                     |               | -->avd.aquasec.com/nvd/cve-2021-22876   |
+------------------------+------------------+----------+---------------------+---------------+-----------------------------------------+
| dbus-libs              | CVE-2020-35512   | LOW      | 1:1.12.8-12.el8_4.2 |               | dbus: users with the same numeric UID   |
|                        |                  |          |                     |               | could lead to use-after-free and...     |
|                        |                  |          |                     |               | -->avd.aquasec.com/nvd/cve-2020-35512   |
+------------------------+------------------+----------+---------------------+---------------+-----------------------------------------+
| file-libs              | CVE-2019-18218   | MEDIUM   | 5.33-16.el8_3.1     |               | file: heap-based buffer overflow        |
|                        |                  |          |                     |               | in cdf_read_property_info in cdf.c      |
|                        |                  |          |                     |               | -->avd.aquasec.com/nvd/cve-2019-18218   |
+                        +------------------+----------+                     +---------------+-----------------------------------------+
|                        | CVE-2019-8905    | LOW      |                     |               | file: stack-based buffer over-read      |
|                        |                  |          |                     |               | in do_core_note in readelf.c            |
|                        |                  |          |                     |               | -->avd.aquasec.com/nvd/cve-2019-8905    |
+                        +------------------+          +                     +---------------+-----------------------------------------+
|                        | CVE-2019-8906    |          |                     |               | file: out-of-bounds read in             |
|                        |                  |          |                     |               | do_core_note in readelf.c               |
|                        |                  |          |                     |               | -->avd.aquasec.com/nvd/cve-2019-8906    |
+------------------------+------------------+----------+---------------------+---------------+-----------------------------------------+
| glib2                  | CVE-2021-27219   | HIGH     | 2.56.4-9.el8        |               | glib: integer overflow in               |
|                        |                  |          |                     |               | g_bytes_new function on                 |
|                        |                  |          |                     |               | 64-bit platforms due to an...           |
|                        |                  |          |                     |               | -->avd.aquasec.com/nvd/cve-2021-27219   |
+                        +------------------+----------+                     +---------------+-----------------------------------------+
|                        | CVE-2021-27218   | MEDIUM   |                     |               | glib: integer overflow in               |
|                        |                  |          |                     |               | g_byte_array_new_take function          |
|                        |                  |          |                     |               | when called with a buffer of...         |
|                        |                  |          |                     |               | -->avd.aquasec.com/nvd/cve-2021-27218   |
+                        +------------------+----------+                     +---------------+-----------------------------------------+
|                        | CVE-2018-16428   | LOW      |                     |               | glib2: NULL pointer dereference in      |
|                        |                  |          |                     |               | g_markup_parse_context_end_parse()      |
|                        |                  |          |                     |               | function in gmarkup.c                   |
|                        |                  |          |                     |               | -->avd.aquasec.com/nvd/cve-2018-16428   |
+                        +------------------+          +                     +---------------+-----------------------------------------+
|                        | CVE-2018-16429   |          |                     |               | glib2: Out-of-bounds read in            |
|                        |                  |          |                     |               | g_markup_parse_context_parse()          |
|                        |                  |          |                     |               | in gmarkup.c                            |
|                        |                  |          |                     |               | -->avd.aquasec.com/nvd/cve-2018-16429   |
+                        +------------------+          +                     +---------------+-----------------------------------------+
|                        | CVE-2021-28153   |          |                     |               | glib: g_file_replace() with             |
|                        |                  |          |                     |               | G_FILE_CREATE_REPLACE_DESTINATION       |
|                        |                  |          |                     |               | creates empty target                    |
|                        |                  |          |                     |               | for dangling symlink                    |
|                        |                  |          |                     |               | -->avd.aquasec.com/nvd/cve-2021-28153   |
+------------------------+------------------+----------+---------------------+---------------+-----------------------------------------+
| glibc                  | CVE-2019-1010022 | MEDIUM   | 2.28-151.el8        |               | glibc: stack guard protection bypass    |
|                        |                  |          |                     |               | -->avd.aquasec.com/nvd/cve-2019-1010022 |
+                        +------------------+----------+                     +---------------+-----------------------------------------+
|                        | CVE-2021-27645   | LOW      |                     |               | glibc: Use-after-free in                |
|                        |                  |          |                     |               | addgetnetgrentX function                |
|                        |                  |          |                     |               | in netgroupcache.c                      |
|                        |                  |          |                     |               | -->avd.aquasec.com/nvd/cve-2021-27645   |
+------------------------+------------------+----------+                     +---------------+-----------------------------------------+
| glibc-common           | CVE-2019-1010022 | MEDIUM   |                     |               | glibc: stack guard protection bypass    |
|                        |                  |          |                     |               | -->avd.aquasec.com/nvd/cve-2019-1010022 |
+                        +------------------+----------+                     +---------------+-----------------------------------------+
|                        | CVE-2021-27645   | LOW      |                     |               | glibc: Use-after-free in                |
|                        |                  |          |                     |               | addgetnetgrentX function                |
|                        |                  |          |                     |               | in netgroupcache.c                      |
|                        |                  |          |                     |               | -->avd.aquasec.com/nvd/cve-2021-27645   |
+------------------------+------------------+----------+                     +---------------+-----------------------------------------+
| glibc-langpack-en      | CVE-2019-1010022 | MEDIUM   |                     |               | glibc: stack guard protection bypass    |
|                        |                  |          |                     |               | -->avd.aquasec.com/nvd/cve-2019-1010022 |
+                        +------------------+----------+                     +---------------+-----------------------------------------+
|                        | CVE-2021-27645   | LOW      |                     |               | glibc: Use-after-free in                |
|                        |                  |          |                     |               | addgetnetgrentX function                |
|                        |                  |          |                     |               | in netgroupcache.c                      |
|                        |                  |          |                     |               | -->avd.aquasec.com/nvd/cve-2021-27645   |
+------------------------+------------------+----------+                     +---------------+-----------------------------------------+
| glibc-minimal-langpack | CVE-2019-1010022 | MEDIUM   |                     |               | glibc: stack guard protection bypass    |
|                        |                  |          |                     |               | -->avd.aquasec.com/nvd/cve-2019-1010022 |
+                        +------------------+----------+                     +---------------+-----------------------------------------+
|                        | CVE-2021-27645   | LOW      |                     |               | glibc: Use-after-free in                |
|                        |                  |          |                     |               | addgetnetgrentX function                |
|                        |                  |          |                     |               | in netgroupcache.c                      |
|                        |                  |          |                     |               | -->avd.aquasec.com/nvd/cve-2021-27645   |
+------------------------+------------------+----------+---------------------+---------------+-----------------------------------------+
| gnutls                 | CVE-2021-20231   | MEDIUM   | 3.6.14-8.el8_3      |               | gnutls: Use after free in               |
|                        |                  |          |                     |               | client key_share extension              |
|                        |                  |          |                     |               | -->avd.aquasec.com/nvd/cve-2021-20231   |
+                        +------------------+          +                     +---------------+-----------------------------------------+
|                        | CVE-2021-20232   |          |                     |               | gnutls: Use after free                  |
|                        |                  |          |                     |               | in client_send_params in                |
|                        |                  |          |                     |               | lib/ext/pre_shared_key.c                |
|                        |                  |          |                     |               | -->avd.aquasec.com/nvd/cve-2021-20232   |
+------------------------+------------------+          +---------------------+---------------+-----------------------------------------+
| json-c                 | CVE-2020-12762   |          | 0.13.1-0.4.el8      |               | json-c: integer overflow                |
|                        |                  |          |                     |               | and out-of-bounds write                 |
|                        |                  |          |                     |               | via a large JSON file                   |
|                        |                  |          |                     |               | -->avd.aquasec.com/nvd/cve-2020-12762   |
+------------------------+------------------+          +---------------------+---------------+-----------------------------------------+
| lcms2                  | CVE-2018-16435   |          | 2.9-2.el8           |               | lcms2: Integer overflow                 |
|                        |                  |          |                     |               | in AllocateDataSet() in                 |
|                        |                  |          |                     |               | cmscgats.c leading to                   |
|                        |                  |          |                     |               | heap-based buffer overflow...           |
|                        |                  |          |                     |               | -->avd.aquasec.com/nvd/cve-2018-16435   |
+------------------------+------------------+          +---------------------+---------------+-----------------------------------------+
| libarchive             | CVE-2017-14502   |          | 3.3.3-1.el8         |               | libarchive: Off-by-one error            |
|                        |                  |          |                     |               | in the read_header function             |
|                        |                  |          |                     |               | -->avd.aquasec.com/nvd/cve-2017-14502   |
+                        +------------------+          +                     +---------------+-----------------------------------------+
|                        | CVE-2020-21674   |          |                     |               | libarchive: heap-based                  |
|                        |                  |          |                     |               | buffer overflow in                      |
|                        |                  |          |                     |               | archive_string_append_from_wcs          |
|                        |                  |          |                     |               | function in archive_string.c            |
|                        |                  |          |                     |               | -->avd.aquasec.com/nvd/cve-2020-21674   |
+                        +------------------+----------+                     +---------------+-----------------------------------------+
|                        | CVE-2017-14166   | LOW      |                     |               | libarchive: Heap-based buffer           |
|                        |                  |          |                     |               | over-read in the atol8 function         |
|                        |                  |          |                     |               | -->avd.aquasec.com/nvd/cve-2017-14166   |
+                        +------------------+          +                     +---------------+-----------------------------------------+
|                        | CVE-2017-14501   |          |                     |               | libarchive: Out-of-bounds               |
|                        |                  |          |                     |               | read in parse_file_info                 |
|                        |                  |          |                     |               | -->avd.aquasec.com/nvd/cve-2017-14501   |
+                        +------------------+          +                     +---------------+-----------------------------------------+
|                        | CVE-2018-1000879 |          |                     |               | libarchive: NULL pointer dereference in |
|                        |                  |          |                     |               | ACL parser resulting in a denial of...  |
|                        |                  |          |                     |               | -->avd.aquasec.com/nvd/cve-2018-1000879 |
+                        +------------------+          +                     +---------------+-----------------------------------------+
|                        | CVE-2018-1000880 |          |                     |               | libarchive: Improper input              |
|                        |                  |          |                     |               | validation in WARC parser               |
|                        |                  |          |                     |               | resulting in a denial of...             |
|                        |                  |          |                     |               | -->avd.aquasec.com/nvd/cve-2018-1000880 |
+------------------------+------------------+----------+---------------------+---------------+-----------------------------------------+
| libcurl                | CVE-2021-22876   | MEDIUM   | 7.61.1-18.el8       |               | curl: Leak of authentication            |
|                        |                  |          |                     |               | credentials in URL                      |
|                        |                  |          |                     |               | via automatic Referer                   |
|                        |                  |          |                     |               | -->avd.aquasec.com/nvd/cve-2021-22876   |
+------------------------+------------------+          +---------------------+---------------+-----------------------------------------+
| libdnf                 | CVE-2021-3445    |          | 0.55.0-7.el8        |               | libdnf: libdnf does its                 |
|                        |                  |          |                     |               | own signature verification,             |
|                        |                  |          |                     |               | but this can be tricked...              |
|                        |                  |          |                     |               | -->avd.aquasec.com/nvd/cve-2021-3445    |
+------------------------+------------------+          +---------------------+---------------+-----------------------------------------+
| libgcc                 | CVE-2018-20673   |          | 8.4.1-1.el8         |               | libiberty: Integer overflow in          |
|                        |                  |          |                     |               | demangle_template() function            |
|                        |                  |          |                     |               | -->avd.aquasec.com/nvd/cve-2018-20673   |
+                        +------------------+----------+                     +---------------+-----------------------------------------+
|                        | CVE-2018-20657   | LOW      |                     |               | libiberty: Memory leak in               |
|                        |                  |          |                     |               | demangle_template function              |
|                        |                  |          |                     |               | resulting in a denial of service...     |
|                        |                  |          |                     |               | -->avd.aquasec.com/nvd/cve-2018-20657   |
+                        +------------------+          +                     +---------------+-----------------------------------------+
|                        | CVE-2019-14250   |          |                     |               | binutils: integer overflow in           |
|                        |                  |          |                     |               | simple-object-elf.c leads to            |
|                        |                  |          |                     |               | a heap-based buffer overflow            |
|                        |                  |          |                     |               | -->avd.aquasec.com/nvd/cve-2019-14250   |
+------------------------+------------------+----------+---------------------+---------------+-----------------------------------------+
| libgcrypt              | CVE-2019-12904   | MEDIUM   | 1.8.5-4.el8         |               | Libgcrypt: physical addresses           |
|                        |                  |          |                     |               | being available to other processes      |
|                        |                  |          |                     |               | leads to a flush-and-reload...          |
|                        |                  |          |                     |               | -->avd.aquasec.com/nvd/cve-2019-12904   |
+------------------------+------------------+          +---------------------+---------------+-----------------------------------------+
| libjpeg-turbo          | CVE-2019-2201    |          | 1.5.3-10.el8        |               | libjpeg-turbo: several integer          |
|                        |                  |          |                     |               | overflows and subsequent                |
|                        |                  |          |                     |               | segfaults when attempting to            |
|                        |                  |          |                     |               | compress/decompress gigapixel...        |
|                        |                  |          |                     |               | -->avd.aquasec.com/nvd/cve-2019-2201    |
+                        +------------------+          +                     +---------------+-----------------------------------------+
|                        | CVE-2020-13790   |          |                     |               | libjpeg-turbo: heap-based buffer        |
|                        |                  |          |                     |               | over-read in get_rgb_row() in rdppm.c   |
|                        |                  |          |                     |               | -->avd.aquasec.com/nvd/cve-2020-13790   |
+------------------------+------------------+----------+---------------------+---------------+-----------------------------------------+
| libpng                 | CVE-2019-7317    | LOW      | 2:1.6.34-5.el8      |               | libpng: use-after-free in               |
|                        |                  |          |                     |               | png_image_free in png.c                 |
|                        |                  |          |                     |               | -->avd.aquasec.com/nvd/cve-2019-7317    |
+------------------------+------------------+          +---------------------+---------------+-----------------------------------------+
| libssh                 | CVE-2020-16135   |          | 0.9.4-2.el8         |               | libssh: NULL pointer                    |
|                        |                  |          |                     |               | dereference in sftpserver.c             |
|                        |                  |          |                     |               | if ssh_buffer_new returns NULL          |
|                        |                  |          |                     |               | -->avd.aquasec.com/nvd/cve-2020-16135   |
+------------------------+                  +          +                     +---------------+                                         +
| libssh-config          |                  |          |                     |               |                                         |
|                        |                  |          |                     |               |                                         |
|                        |                  |          |                     |               |                                         |
|                        |                  |          |                     |               |                                         |
+------------------------+------------------+----------+---------------------+---------------+-----------------------------------------+
| libstdc++              | CVE-2018-20673   | MEDIUM   | 8.4.1-1.el8         |               | libiberty: Integer overflow in          |
|                        |                  |          |                     |               | demangle_template() function            |
|                        |                  |          |                     |               | -->avd.aquasec.com/nvd/cve-2018-20673   |
+                        +------------------+----------+                     +---------------+-----------------------------------------+
|                        | CVE-2018-20657   | LOW      |                     |               | libiberty: Memory leak in               |
|                        |                  |          |                     |               | demangle_template function              |
|                        |                  |          |                     |               | resulting in a denial of service...     |
|                        |                  |          |                     |               | -->avd.aquasec.com/nvd/cve-2018-20657   |
+                        +------------------+          +                     +---------------+-----------------------------------------+
|                        | CVE-2019-14250   |          |                     |               | binutils: integer overflow in           |
|                        |                  |          |                     |               | simple-object-elf.c leads to            |
|                        |                  |          |                     |               | a heap-based buffer overflow            |
|                        |                  |          |                     |               | -->avd.aquasec.com/nvd/cve-2019-14250   |
+------------------------+------------------+          +---------------------+---------------+-----------------------------------------+
| libtasn1               | CVE-2018-1000654 |          | 4.13-3.el8          |               | libtasn1: Infinite loop in              |
|                        |                  |          |                     |               | _asn1_expand_object_id(ptree)           |
|                        |                  |          |                     |               | leads to memory exhaustion              |
|                        |                  |          |                     |               | -->avd.aquasec.com/nvd/cve-2018-1000654 |
+------------------------+------------------+----------+---------------------+---------------+-----------------------------------------+
| libxml2                | CVE-2021-3516    | MEDIUM   | 2.9.7-9.el8         |               | libxml2: use-after-free in              |
|                        |                  |          |                     |               | xmlEncodeEntitiesInternal()             |
|                        |                  |          |                     |               | in entities.c                           |
|                        |                  |          |                     |               | -->avd.aquasec.com/nvd/cve-2021-3516    |
+                        +------------------+          +                     +---------------+-----------------------------------------+
|                        | CVE-2021-3517    |          |                     |               | libxml2: heap-based buffer overflow     |
|                        |                  |          |                     |               | in xmlEncodeEntitiesInternal()          |
|                        |                  |          |                     |               | in entities.c                           |
|                        |                  |          |                     |               | -->avd.aquasec.com/nvd/cve-2021-3517    |
+                        +------------------+          +                     +---------------+-----------------------------------------+
|                        | CVE-2021-3518    |          |                     |               | libxml2: use-after-free in              |
|                        |                  |          |                     |               | xmlXIncludeDoProcess() in xinclude.c    |
|                        |                  |          |                     |               | -->avd.aquasec.com/nvd/cve-2021-3518    |
+                        +------------------+          +                     +---------------+-----------------------------------------+
|                        | CVE-2021-3537    |          |                     |               | libxml2: NULL pointer dereference       |
|                        |                  |          |                     |               | when post-validating mix content        |
|                        |                  |          |                     |               | parsed in recovery mode...              |
|                        |                  |          |                     |               | -->avd.aquasec.com/nvd/cve-2021-3537    |
+                        +------------------+          +                     +---------------+-----------------------------------------+
|                        | CVE-2021-3541    |          |                     |               | libxml2: Exponential entity             |
|                        |                  |          |                     |               | expansion attack bypasses all           |
|                        |                  |          |                     |               | existing protection mechanisms          |
|                        |                  |          |                     |               | -->avd.aquasec.com/nvd/cve-2021-3541    |
+------------------------+------------------+----------+---------------------+---------------+-----------------------------------------+
| libzstd                | CVE-2021-24032   | LOW      | 1.4.4-1.el8         |               | zstd: Race condition                    |
|                        |                  |          |                     |               | allows attacker to access               |
|                        |                  |          |                     |               | world-readable destination file         |
|                        |                  |          |                     |               | -->avd.aquasec.com/nvd/cve-2021-24032   |
+------------------------+------------------+----------+---------------------+---------------+-----------------------------------------+
| lua                    | CVE-2020-15945   | MEDIUM   | 5.3.4-11.el8        |               | lua: segmentation fault                 |
|                        |                  |          |                     |               | in changedline in ldebug.c              |
|                        |                  |          |                     |               | -->avd.aquasec.com/nvd/cve-2020-15945   |
+                        +------------------+----------+                     +---------------+-----------------------------------------+
|                        | CVE-2020-24370   | LOW      |                     |               | lua: segmentation fault in getlocal     |
|                        |                  |          |                     |               | and setlocal functions in ldebug.c      |
|                        |                  |          |                     |               | -->avd.aquasec.com/nvd/cve-2020-24370   |
+------------------------+------------------+----------+                     +---------------+-----------------------------------------+
| lua-libs               | CVE-2020-15945   | MEDIUM   |                     |               | lua: segmentation fault                 |
|                        |                  |          |                     |               | in changedline in ldebug.c              |
|                        |                  |          |                     |               | -->avd.aquasec.com/nvd/cve-2020-15945   |
+                        +------------------+----------+                     +---------------+-----------------------------------------+
|                        | CVE-2020-24370   | LOW      |                     |               | lua: segmentation fault in getlocal     |
|                        |                  |          |                     |               | and setlocal functions in ldebug.c      |
|                        |                  |          |                     |               | -->avd.aquasec.com/nvd/cve-2020-24370   |
+------------------------+------------------+----------+---------------------+---------------+-----------------------------------------+
| lz4-libs               | CVE-2019-17543   | MEDIUM   | 1.8.3-2.el8         |               | lz4: heap-based buffer                  |
|                        |                  |          |                     |               | overflow in LZ4_write32                 |
|                        |                  |          |                     |               | -->avd.aquasec.com/nvd/cve-2019-17543   |
+                        +------------------+          +                     +---------------+-----------------------------------------+
|                        | CVE-2021-3520    |          |                     |               | lz4: memory corruption                  |
|                        |                  |          |                     |               | due to an integer overflow              |
|                        |                  |          |                     |               | bug caused by memmove...                |
|                        |                  |          |                     |               | -->avd.aquasec.com/nvd/cve-2021-3520    |
+------------------------+------------------+          +---------------------+---------------+-----------------------------------------+
| ncurses-base           | CVE-2019-17594   |          | 6.1-7.20180224.el8  |               | ncurses: heap-based buffer              |
|                        |                  |          |                     |               | overflow in the _nc_find_entry          |
|                        |                  |          |                     |               | function in tinfo/comp_hash.c           |
|                        |                  |          |                     |               | -->avd.aquasec.com/nvd/cve-2019-17594   |
+                        +------------------+          +                     +---------------+-----------------------------------------+
|                        | CVE-2019-17595   |          |                     |               | ncurses: heap-based buffer              |
|                        |                  |          |                     |               | overflow in the fmt_entry               |
|                        |                  |          |                     |               | function in tinfo/comp_hash.c           |
|                        |                  |          |                     |               | -->avd.aquasec.com/nvd/cve-2019-17595   |
+                        +------------------+----------+                     +---------------+-----------------------------------------+
|                        | CVE-2018-19211   | LOW      |                     |               | ncurses: Null pointer                   |
|                        |                  |          |                     |               | dereference at function                 |
|                        |                  |          |                     |               | _nc_parse_entry in parse_entry.c        |
|                        |                  |          |                     |               | -->avd.aquasec.com/nvd/cve-2018-19211   |
+                        +------------------+          +                     +---------------+-----------------------------------------+
|                        | CVE-2018-19217   |          |                     |               | ncurses: Null pointer dereference       |
|                        |                  |          |                     |               | at function _nc_name_match              |
|                        |                  |          |                     |               | -->avd.aquasec.com/nvd/cve-2018-19217   |
+------------------------+------------------+----------+                     +---------------+-----------------------------------------+
| ncurses-libs           | CVE-2019-17594   | MEDIUM   |                     |               | ncurses: heap-based buffer              |
|                        |                  |          |                     |               | overflow in the _nc_find_entry          |
|                        |                  |          |                     |               | function in tinfo/comp_hash.c           |
|                        |                  |          |                     |               | -->avd.aquasec.com/nvd/cve-2019-17594   |
+                        +------------------+          +                     +---------------+-----------------------------------------+
|                        | CVE-2019-17595   |          |                     |               | ncurses: heap-based buffer              |
|                        |                  |          |                     |               | overflow in the fmt_entry               |
|                        |                  |          |                     |               | function in tinfo/comp_hash.c           |
|                        |                  |          |                     |               | -->avd.aquasec.com/nvd/cve-2019-17595   |
+                        +------------------+----------+                     +---------------+-----------------------------------------+
|                        | CVE-2018-19211   | LOW      |                     |               | ncurses: Null pointer                   |
|                        |                  |          |                     |               | dereference at function                 |
|                        |                  |          |                     |               | _nc_parse_entry in parse_entry.c        |
|                        |                  |          |                     |               | -->avd.aquasec.com/nvd/cve-2018-19211   |
+                        +------------------+          +                     +---------------+-----------------------------------------+
|                        | CVE-2018-19217   |          |                     |               | ncurses: Null pointer dereference       |
|                        |                  |          |                     |               | at function _nc_name_match              |
|                        |                  |          |                     |               | -->avd.aquasec.com/nvd/cve-2018-19217   |
+------------------------+------------------+----------+---------------------+---------------+-----------------------------------------+
| nss                    | CVE-2020-12399   | MEDIUM   | 3.53.1-17.el8_3     |               | nss: Timing attack on                   |
|                        |                  |          |                     |               | DSA signature generation                |
|                        |                  |          |                     |               | -->avd.aquasec.com/nvd/cve-2020-12399   |
+                        +------------------+          +                     +---------------+-----------------------------------------+
|                        | CVE-2020-12401   |          |                     |               | nss: ECDSA timing                       |
|                        |                  |          |                     |               | attack mitigation bypass                |
|                        |                  |          |                     |               | -->avd.aquasec.com/nvd/cve-2020-12401   |
+                        +------------------+          +                     +---------------+-----------------------------------------+
|                        | CVE-2020-25648   |          |                     |               | nss: TLS 1.3 CCS flood                  |
|                        |                  |          |                     |               | remote DoS Attack                       |
|                        |                  |          |                     |               | -->avd.aquasec.com/nvd/cve-2020-25648   |
+                        +------------------+----------+                     +---------------+-----------------------------------------+
|                        | CVE-2020-12413   | LOW      |                     |               | nss: Information exposure when          |
|                        |                  |          |                     |               | DH secret are reused across             |
|                        |                  |          |                     |               | multiple TLS connections...             |
|                        |                  |          |                     |               | -->avd.aquasec.com/nvd/cve-2020-12413   |
+------------------------+------------------+----------+                     +---------------+-----------------------------------------+
| nss-softokn            | CVE-2020-12399   | MEDIUM   |                     |               | nss: Timing attack on                   |
|                        |                  |          |                     |               | DSA signature generation                |
|                        |                  |          |                     |               | -->avd.aquasec.com/nvd/cve-2020-12399   |
+                        +------------------+          +                     +---------------+-----------------------------------------+
|                        | CVE-2020-12401   |          |                     |               | nss: ECDSA timing                       |
|                        |                  |          |                     |               | attack mitigation bypass                |
|                        |                  |          |                     |               | -->avd.aquasec.com/nvd/cve-2020-12401   |
+                        +------------------+          +                     +---------------+-----------------------------------------+
|                        | CVE-2020-25648   |          |                     |               | nss: TLS 1.3 CCS flood                  |
|                        |                  |          |                     |               | remote DoS Attack                       |
|                        |                  |          |                     |               | -->avd.aquasec.com/nvd/cve-2020-25648   |
+                        +------------------+----------+                     +---------------+-----------------------------------------+
|                        | CVE-2020-12413   | LOW      |                     |               | nss: Information exposure when          |
|                        |                  |          |                     |               | DH secret are reused across             |
|                        |                  |          |                     |               | multiple TLS connections...             |
|                        |                  |          |                     |               | -->avd.aquasec.com/nvd/cve-2020-12413   |
+------------------------+------------------+----------+                     +---------------+-----------------------------------------+
| nss-softokn-freebl     | CVE-2020-12399   | MEDIUM   |                     |               | nss: Timing attack on                   |
|                        |                  |          |                     |               | DSA signature generation                |
|                        |                  |          |                     |               | -->avd.aquasec.com/nvd/cve-2020-12399   |
+                        +------------------+          +                     +---------------+-----------------------------------------+
|                        | CVE-2020-12401   |          |                     |               | nss: ECDSA timing                       |
|                        |                  |          |                     |               | attack mitigation bypass                |
|                        |                  |          |                     |               | -->avd.aquasec.com/nvd/cve-2020-12401   |
+                        +------------------+          +                     +---------------+-----------------------------------------+
|                        | CVE-2020-25648   |          |                     |               | nss: TLS 1.3 CCS flood                  |
|                        |                  |          |                     |               | remote DoS Attack                       |
|                        |                  |          |                     |               | -->avd.aquasec.com/nvd/cve-2020-25648   |
+                        +------------------+----------+                     +---------------+-----------------------------------------+
|                        | CVE-2020-12413   | LOW      |                     |               | nss: Information exposure when          |
|                        |                  |          |                     |               | DH secret are reused across             |
|                        |                  |          |                     |               | multiple TLS connections...             |
|                        |                  |          |                     |               | -->avd.aquasec.com/nvd/cve-2020-12413   |
+------------------------+------------------+----------+                     +---------------+-----------------------------------------+
| nss-sysinit            | CVE-2020-12399   | MEDIUM   |                     |               | nss: Timing attack on                   |
|                        |                  |          |                     |               | DSA signature generation                |
|                        |                  |          |                     |               | -->avd.aquasec.com/nvd/cve-2020-12399   |
+                        +------------------+          +                     +---------------+-----------------------------------------+
|                        | CVE-2020-12401   |          |                     |               | nss: ECDSA timing                       |
|                        |                  |          |                     |               | attack mitigation bypass                |
|                        |                  |          |                     |               | -->avd.aquasec.com/nvd/cve-2020-12401   |
+                        +------------------+          +                     +---------------+-----------------------------------------+
|                        | CVE-2020-25648   |          |                     |               | nss: TLS 1.3 CCS flood                  |
|                        |                  |          |                     |               | remote DoS Attack                       |
|                        |                  |          |                     |               | -->avd.aquasec.com/nvd/cve-2020-25648   |
+                        +------------------+----------+                     +---------------+-----------------------------------------+
|                        | CVE-2020-12413   | LOW      |                     |               | nss: Information exposure when          |
|                        |                  |          |                     |               | DH secret are reused across             |
|                        |                  |          |                     |               | multiple TLS connections...             |
|                        |                  |          |                     |               | -->avd.aquasec.com/nvd/cve-2020-12413   |
+------------------------+------------------+----------+                     +---------------+-----------------------------------------+
| nss-util               | CVE-2020-12399   | MEDIUM   |                     |               | nss: Timing attack on                   |
|                        |                  |          |                     |               | DSA signature generation                |
|                        |                  |          |                     |               | -->avd.aquasec.com/nvd/cve-2020-12399   |
+                        +------------------+          +                     +---------------+-----------------------------------------+
|                        | CVE-2020-12401   |          |                     |               | nss: ECDSA timing                       |
|                        |                  |          |                     |               | attack mitigation bypass                |
|                        |                  |          |                     |               | -->avd.aquasec.com/nvd/cve-2020-12401   |
+                        +------------------+          +                     +---------------+-----------------------------------------+
|                        | CVE-2020-25648   |          |                     |               | nss: TLS 1.3 CCS flood                  |
|                        |                  |          |                     |               | remote DoS Attack                       |
|                        |                  |          |                     |               | -->avd.aquasec.com/nvd/cve-2020-25648   |
+                        +------------------+----------+                     +---------------+-----------------------------------------+
|                        | CVE-2020-12413   | LOW      |                     |               | nss: Information exposure when          |
|                        |                  |          |                     |               | DH secret are reused across             |
|                        |                  |          |                     |               | multiple TLS connections...             |
|                        |                  |          |                     |               | -->avd.aquasec.com/nvd/cve-2020-12413   |
+------------------------+------------------+----------+---------------------+---------------+-----------------------------------------+
| openssl                | CVE-2021-23840   | MEDIUM   | 1:1.1.1g-15.el8_3   |               | openssl: integer                        |
|                        |                  |          |                     |               | overflow in CipherUpdate                |
|                        |                  |          |                     |               | -->avd.aquasec.com/nvd/cve-2021-23840   |
+                        +------------------+          +                     +---------------+-----------------------------------------+
|                        | CVE-2021-23841   |          |                     |               | openssl: NULL pointer dereference       |
|                        |                  |          |                     |               | in X509_issuer_and_serial_hash()        |
|                        |                  |          |                     |               | -->avd.aquasec.com/nvd/cve-2021-23841   |
+------------------------+------------------+          +                     +---------------+-----------------------------------------+
| openssl-libs           | CVE-2021-23840   |          |                     |               | openssl: integer                        |
|                        |                  |          |                     |               | overflow in CipherUpdate                |
|                        |                  |          |                     |               | -->avd.aquasec.com/nvd/cve-2021-23840   |
+                        +------------------+          +                     +---------------+-----------------------------------------+
|                        | CVE-2021-23841   |          |                     |               | openssl: NULL pointer dereference       |
|                        |                  |          |                     |               | in X509_issuer_and_serial_hash()        |
|                        |                  |          |                     |               | -->avd.aquasec.com/nvd/cve-2021-23841   |
+------------------------+------------------+----------+---------------------+---------------+-----------------------------------------+
| pcre                   | CVE-2019-20838   | LOW      | 8.42-4.el8          |               | pcre: buffer over-read in               |
|                        |                  |          |                     |               | JIT when UTF is disabled                |
|                        |                  |          |                     |               | -->avd.aquasec.com/nvd/cve-2019-20838   |
+                        +------------------+          +                     +---------------+-----------------------------------------+
|                        | CVE-2020-14155   |          |                     |               | pcre: integer overflow in libpcre       |
|                        |                  |          |                     |               | -->avd.aquasec.com/nvd/cve-2020-14155   |
+------------------------+------------------+----------+---------------------+---------------+-----------------------------------------+
| platform-python        | CVE-2021-3426    | MEDIUM   | 3.6.8-37.el8        |               | python: information                     |
|                        |                  |          |                     |               | disclosure via pydoc                    |
|                        |                  |          |                     |               | -->avd.aquasec.com/nvd/cve-2021-3426    |
+                        +------------------+----------+                     +---------------+-----------------------------------------+
|                        | CVE-2019-9674    | LOW      |                     |               | python: Nested zip file (Zip bomb)      |
|                        |                  |          |                     |               | vulnerability in Lib/zipfile.py         |
|                        |                  |          |                     |               | -->avd.aquasec.com/nvd/cve-2019-9674    |
+------------------------+------------------+          +---------------------+---------------+-----------------------------------------+
| platform-python-pip    | CVE-2018-20225   |          | 9.0.3-19.el8        |               | python-pip: when --extra-index-url      |
|                        |                  |          |                     |               | option is used and package              |
|                        |                  |          |                     |               | does not already exist...               |
|                        |                  |          |                     |               | -->avd.aquasec.com/nvd/cve-2018-20225   |
+------------------------+------------------+----------+---------------------+---------------+-----------------------------------------+
| python3-libs           | CVE-2021-3426    | MEDIUM   | 3.6.8-37.el8        |               | python: information                     |
|                        |                  |          |                     |               | disclosure via pydoc                    |
|                        |                  |          |                     |               | -->avd.aquasec.com/nvd/cve-2021-3426    |
+                        +------------------+----------+                     +---------------+-----------------------------------------+
|                        | CVE-2019-9674    | LOW      |                     |               | python: Nested zip file (Zip bomb)      |
|                        |                  |          |                     |               | vulnerability in Lib/zipfile.py         |
|                        |                  |          |                     |               | -->avd.aquasec.com/nvd/cve-2019-9674    |
+------------------------+------------------+          +---------------------+---------------+-----------------------------------------+
| python3-pip-wheel      | CVE-2018-20225   |          | 9.0.3-19.el8        |               | python-pip: when --extra-index-url      |
|                        |                  |          |                     |               | option is used and package              |
|                        |                  |          |                     |               | does not already exist...               |
|                        |                  |          |                     |               | -->avd.aquasec.com/nvd/cve-2018-20225   |
+------------------------+------------------+----------+---------------------+---------------+-----------------------------------------+
| rpm                    | CVE-2021-20271   | MEDIUM   | 4.14.3-13.el8       |               | rpm: Signature checks bypass            |
|                        |                  |          |                     |               | via corrupted rpm package               |
|                        |                  |          |                     |               | -->avd.aquasec.com/nvd/cve-2021-20271   |
+                        +------------------+          +                     +---------------+-----------------------------------------+
|                        | CVE-2021-3421    |          |                     |               | rpm: unsigned signature header          |
|                        |                  |          |                     |               | leads to string injection               |
|                        |                  |          |                     |               | into an rpm database...                 |
|                        |                  |          |                     |               | -->avd.aquasec.com/nvd/cve-2021-3421    |
+                        +------------------+----------+                     +---------------+-----------------------------------------+
|                        | CVE-2021-20266   | LOW      |                     |               | rpm: missing length                     |
|                        |                  |          |                     |               | checks in hdrblobInit()                 |
|                        |                  |          |                     |               | -->avd.aquasec.com/nvd/cve-2021-20266   |
+------------------------+------------------+----------+                     +---------------+-----------------------------------------+
| rpm-libs               | CVE-2021-20271   | MEDIUM   |                     |               | rpm: Signature checks bypass            |
|                        |                  |          |                     |               | via corrupted rpm package               |
|                        |                  |          |                     |               | -->avd.aquasec.com/nvd/cve-2021-20271   |
+                        +------------------+          +                     +---------------+-----------------------------------------+
|                        | CVE-2021-3421    |          |                     |               | rpm: unsigned signature header          |
|                        |                  |          |                     |               | leads to string injection               |
|                        |                  |          |                     |               | into an rpm database...                 |
|                        |                  |          |                     |               | -->avd.aquasec.com/nvd/cve-2021-3421    |
+                        +------------------+----------+                     +---------------+-----------------------------------------+
|                        | CVE-2021-20266   | LOW      |                     |               | rpm: missing length                     |
|                        |                  |          |                     |               | checks in hdrblobInit()                 |
|                        |                  |          |                     |               | -->avd.aquasec.com/nvd/cve-2021-20266   |
+------------------------+------------------+----------+---------------------+---------------+-----------------------------------------+
| sqlite-libs            | CVE-2019-5827    | HIGH     | 3.26.0-13.el8       |               | chromium-browser:                       |
|                        |                  |          |                     |               | out-of-bounds access in SQLite          |
|                        |                  |          |                     |               | -->avd.aquasec.com/nvd/cve-2019-5827    |
+                        +------------------+----------+                     +---------------+-----------------------------------------+
|                        | CVE-2019-13750   | MEDIUM   |                     |               | sqlite: dropping of shadow tables       |
|                        |                  |          |                     |               | not restricted in defensive mode        |
|                        |                  |          |                     |               | -->avd.aquasec.com/nvd/cve-2019-13750   |
+                        +------------------+          +                     +---------------+-----------------------------------------+
|                        | CVE-2019-13751   |          |                     |               | sqlite: fts3: improve                   |
|                        |                  |          |                     |               | detection of corrupted records          |
|                        |                  |          |                     |               | -->avd.aquasec.com/nvd/cve-2019-13751   |
+                        +------------------+          +                     +---------------+-----------------------------------------+
|                        | CVE-2019-19603   |          |                     |               | sqlite: mishandles certain SELECT       |
|                        |                  |          |                     |               | statements with a nonexistent           |
|                        |                  |          |                     |               | VIEW, leading to DoS...                 |
|                        |                  |          |                     |               | -->avd.aquasec.com/nvd/cve-2019-19603   |
+                        +------------------+          +                     +---------------+-----------------------------------------+
|                        | CVE-2020-13435   |          |                     |               | sqlite: NULL pointer dereference        |
|                        |                  |          |                     |               | leads to segmentation fault in          |
|                        |                  |          |                     |               | sqlite3ExprCodeTarget in expr.c...      |
|                        |                  |          |                     |               | -->avd.aquasec.com/nvd/cve-2020-13435   |
+                        +------------------+----------+                     +---------------+-----------------------------------------+
|                        | CVE-2019-19244   | LOW      |                     |               | sqlite: allows a crash                  |
|                        |                  |          |                     |               | if a sub-select uses both               |
|                        |                  |          |                     |               | DISTINCT and window...                  |
|                        |                  |          |                     |               | -->avd.aquasec.com/nvd/cve-2019-19244   |
+                        +------------------+          +                     +---------------+-----------------------------------------+
|                        | CVE-2019-9936    |          |                     |               | sqlite: heap-based buffer               |
|                        |                  |          |                     |               | over-read in function                   |
|                        |                  |          |                     |               | fts5HashEntrySort in sqlite3.c          |
|                        |                  |          |                     |               | -->avd.aquasec.com/nvd/cve-2019-9936    |
+                        +------------------+          +                     +---------------+-----------------------------------------+
|                        | CVE-2019-9937    |          |                     |               | sqlite: null-pointer                    |
|                        |                  |          |                     |               | dereference in function                 |
|                        |                  |          |                     |               | fts5ChunkIterate in sqlite3.c           |
|                        |                  |          |                     |               | -->avd.aquasec.com/nvd/cve-2019-9937    |
+------------------------+------------------+----------+---------------------+---------------+-----------------------------------------+
| systemd-libs           | CVE-2018-20839   | MEDIUM   | 239-45.el8          |               | systemd: mishandling of the             |
|                        |                  |          |                     |               | current keyboard mode check             |
|                        |                  |          |                     |               | leading to passwords being...           |
|                        |                  |          |                     |               | -->avd.aquasec.com/nvd/cve-2018-20839   |
+------------------------+------------------+          +---------------------+---------------+-----------------------------------------+
| tar                    | CVE-2021-20193   |          | 2:1.30-5.el8        |               | tar: Memory leak in                     |
|                        |                  |          |                     |               | read_header() in list.c                 |
|                        |                  |          |                     |               | -->avd.aquasec.com/nvd/cve-2021-20193   |
+                        +------------------+----------+                     +---------------+-----------------------------------------+
|                        | CVE-2019-9923    | LOW      |                     |               | tar: null-pointer dereference           |
|                        |                  |          |                     |               | in pax_decode_header in sparse.c        |
|                        |                  |          |                     |               | -->avd.aquasec.com/nvd/cve-2019-9923    |
+------------------------+------------------+----------+---------------------+---------------+-----------------------------------------+
```
